{
  "author": "PrivateShip",
  "version": "0.0.22",
  "name": "LastShip",
  "update_directory": "https://bitbucket.org/privateship/Providers/get/master.zip",
  "remote_meta": "https://bitbucket.org/privateship/providers/raw/master/meta.json",
  "seren_version": "0.2.0"
}